1184
1.086000e+00 1.086000e+00 2.009100e+01
Si 2.715000e-01 0.000000e+00 0.000000e+00 6.788771e-05
Si 4.072500e-01 1.357500e-01 1.357500e-01 6.788771e-05
Si 0.000000e+00 2.715000e-01 0.000000e+00 6.788771e-05
Si 1.357500e-01 4.072500e-01 1.357500e-01 6.788771e-05
Si 0.000000e+00 0.000000e+00 2.715000e-01 6.788771e-05
Si 1.357500e-01 1.357500e-01 4.072500e-01 6.788771e-05
Si 2.715000e-01 2.715000e-01 2.715000e-01 6.788771e-05
Si 4.072500e-01 4.072500e-01 4.072500e-01 6.788771e-05
Si 2.715000e-01 0.000000e+00 5.430000e-01 6.788771e-05
Si 4.072500e-01 1.357500e-01 6.787500e-01 6.788771e-05
Si 0.000000e+00 2.715000e-01 5.430000e-01 6.788771e-05
Si 1.357500e-01 4.072500e-01 6.787500e-01 6.788771e-05
Si 0.000000e+00 0.000000e+00 8.145000e-01 6.788771e-05
Si 1.357500e-01 1.357500e-01 9.502500e-01 6.788771e-05
Si 2.715000e-01 2.715000e-01 8.145000e-01 6.788771e-05
Si 4.072500e-01 4.072500e-01 9.502500e-01 6.788771e-05
Si 2.715000e-01 0.000000e+00 1.086000e+00 6.788771e-05
Si 4.072500e-01 1.357500e-01 1.221750e+00 6.788771e-05
Si 0.000000e+00 2.715000e-01 1.086000e+00 6.788771e-05
Si 1.357500e-01 4.072500e-01 1.221750e+00 6.788771e-05
Si 0.000000e+00 0.000000e+00 1.357500e+00 6.788771e-05
Si 1.357500e-01 1.357500e-01 1.493250e+00 6.788771e-05
Si 2.715000e-01 2.715000e-01 1.357500e+00 6.788771e-05
Si 4.072500e-01 4.072500e-01 1.493250e+00 6.788771e-05
Si 2.715000e-01 0.000000e+00 1.629000e+00 6.788771e-05
Si 4.072500e-01 1.357500e-01 1.764750e+00 6.788771e-05
Si 0.000000e+00 2.715000e-01 1.629000e+00 6.788771e-05
Si 1.357500e-01 4.072500e-01 1.764750e+00 6.788771e-05
Si 0.000000e+00 0.000000e+00 1.900500e+00 6.788771e-05
Si 1.357500e-01 1.357500e-01 2.036250e+00 6.788771e-05
Si 2.715000e-01 2.715000e-01 1.900500e+00 6.788771e-05
Si 4.072500e-01 4.072500e-01 2.036250e+00 6.788771e-05
Si 2.715000e-01 0.000000e+00 2.172000e+00 6.788771e-05
Si 4.072500e-01 1.357500e-01 2.307750e+00 6.788771e-05
Si 0.000000e+00 2.715000e-01 2.172000e+00 6.788771e-05
Si 1.357500e-01 4.072500e-01 2.307750e+00 6.788771e-05
Si 0.000000e+00 0.000000e+00 2.443500e+00 6.788771e-05
Si 1.357500e-01 1.357500e-01 2.579250e+00 6.788771e-05
Si 2.715000e-01 2.715000e-01 2.443500e+00 6.788771e-05
Si 4.072500e-01 4.072500e-01 2.579250e+00 6.788771e-05
Si 2.715000e-01 0.000000e+00 2.715000e+00 6.788771e-05
Si 4.072500e-01 1.357500e-01 2.850750e+00 6.788771e-05
Si 0.000000e+00 2.715000e-01 2.715000e+00 6.788771e-05
Si 1.357500e-01 4.072500e-01 2.850750e+00 6.788771e-05
Si 0.000000e+00 0.000000e+00 2.986500e+00 6.788771e-05
Si 1.357500e-01 1.357500e-01 3.122250e+00 6.788771e-05
Si 2.715000e-01 2.715000e-01 2.986500e+00 6.788771e-05
Si 4.072500e-01 4.072500e-01 3.122250e+00 6.788771e-05
Si 2.715000e-01 0.000000e+00 3.258000e+00 6.788771e-05
Si 4.072500e-01 1.357500e-01 3.393750e+00 6.788771e-05
Si 0.000000e+00 2.715000e-01 3.258000e+00 6.788771e-05
Si 1.357500e-01 4.072500e-01 3.393750e+00 6.788771e-05
Si 0.000000e+00 0.000000e+00 3.529500e+00 6.788771e-05
Si 1.357500e-01 1.357500e-01 3.665250e+00 6.788771e-05
Si 2.715000e-01 2.715000e-01 3.529500e+00 6.788771e-05
Si 4.072500e-01 4.072500e-01 3.665250e+00 6.788771e-05
Si 2.715000e-01 0.000000e+00 3.801000e+00 6.788771e-05
Si 4.072500e-01 1.357500e-01 3.936750e+00 6.788771e-05
Si 0.000000e+00 2.715000e-01 3.801000e+00 6.788771e-05
Si 1.357500e-01 4.072500e-01 3.936750e+00 6.788771e-05
Si 0.000000e+00 0.000000e+00 4.072500e+00 6.788771e-05
Si 1.357500e-01 1.357500e-01 4.208250e+00 6.788771e-05
Si 2.715000e-01 2.715000e-01 4.072500e+00 6.788771e-05
Si 4.072500e-01 4.072500e-01 4.208250e+00 6.788771e-05
Si 2.715000e-01 0.000000e+00 4.344000e+00 6.788771e-05
Si 4.072500e-01 1.357500e-01 4.479750e+00 6.788771e-05
Si 0.000000e+00 2.715000e-01 4.344000e+00 6.788771e-05
Si 1.357500e-01 4.072500e-01 4.479750e+00 6.788771e-05
Si 0.000000e+00 0.000000e+00 4.615500e+00 6.788771e-05
Si 1.357500e-01 1.357500e-01 4.751250e+00 6.788771e-05
Si 2.715000e-01 2.715000e-01 4.615500e+00 6.788771e-05
Si 4.072500e-01 4.072500e-01 4.751250e+00 6.788771e-05
Si 2.715000e-01 0.000000e+00 4.887000e+00 6.788771e-05
Si 4.072500e-01 1.357500e-01 5.022750e+00 6.788771e-05
Si 0.000000e+00 2.715000e-01 4.887000e+00 6.788771e-05
Si 1.357500e-01 4.072500e-01 5.022750e+00 6.788771e-05
Si 0.000000e+00 0.000000e+00 5.158500e+00 6.788771e-05
Si 1.357500e-01 1.357500e-01 5.294250e+00 6.788771e-05
Si 2.715000e-01 2.715000e-01 5.158500e+00 6.788771e-05
Si 4.072500e-01 4.072500e-01 5.294250e+00 6.788771e-05
Si 2.715000e-01 0.000000e+00 5.430000e+00 6.788771e-05
Si 4.072500e-01 1.357500e-01 5.565750e+00 6.788771e-05
Si 0.000000e+00 2.715000e-01 5.430000e+00 6.788771e-05
Si 1.357500e-01 4.072500e-01 5.565750e+00 6.788771e-05
Si 0.000000e+00 0.000000e+00 5.701500e+00 6.788771e-05
Si 1.357500e-01 1.357500e-01 5.837250e+00 6.788771e-05
Si 2.715000e-01 2.715000e-01 5.701500e+00 6.788771e-05
Si 4.072500e-01 4.072500e-01 5.837250e+00 6.788771e-05
Si 2.715000e-01 0.000000e+00 5.973000e+00 6.788771e-05
Si 4.072500e-01 1.357500e-01 6.108750e+00 6.788771e-05
Si 0.000000e+00 2.715000e-01 5.973000e+00 6.788771e-05
Si 1.357500e-01 4.072500e-01 6.108750e+00 6.788771e-05
Si 0.000000e+00 0.000000e+00 6.244500e+00 6.788771e-05
Si 1.357500e-01 1.357500e-01 6.380250e+00 6.788771e-05
Si 2.715000e-01 2.715000e-01 6.244500e+00 6.788771e-05
Si 4.072500e-01 4.072500e-01 6.380250e+00 6.788771e-05
Si 2.715000e-01 0.000000e+00 6.516000e+00 6.788771e-05
Si 4.072500e-01 1.357500e-01 6.651750e+00 6.788771e-05
Si 0.000000e+00 2.715000e-01 6.516000e+00 6.788771e-05
Si 1.357500e-01 4.072500e-01 6.651750e+00 6.788771e-05
Si 0.000000e+00 0.000000e+00 6.787500e+00 6.788771e-05
Si 1.357500e-01 1.357500e-01 6.923250e+00 6.788771e-05
Si 2.715000e-01 2.715000e-01 6.787500e+00 6.788771e-05
Si 4.072500e-01 4.072500e-01 6.923250e+00 6.788771e-05
Si 2.715000e-01 0.000000e+00 7.059000e+00 6.788771e-05
Si 4.072500e-01 1.357500e-01 7.194750e+00 6.788771e-05
Si 0.000000e+00 2.715000e-01 7.059000e+00 6.788771e-05
Si 1.357500e-01 4.072500e-01 7.194750e+00 6.788771e-05
Si 0.000000e+00 0.000000e+00 7.330500e+00 6.788771e-05
Si 1.357500e-01 1.357500e-01 7.466250e+00 6.788771e-05
Si 2.715000e-01 2.715000e-01 7.330500e+00 6.788771e-05
Si 4.072500e-01 4.072500e-01 7.466250e+00 6.788771e-05
Si 2.715000e-01 0.000000e+00 7.602000e+00 6.788771e-05
Si 4.072500e-01 1.357500e-01 7.737750e+00 6.788771e-05
Si 0.000000e+00 2.715000e-01 7.602000e+00 6.788771e-05
Si 1.357500e-01 4.072500e-01 7.737750e+00 6.788771e-05
Si 0.000000e+00 0.000000e+00 7.873500e+00 6.788771e-05
Si 1.357500e-01 1.357500e-01 8.009250e+00 6.788771e-05
Si 2.715000e-01 2.715000e-01 7.873500e+00 6.788771e-05
Si 4.072500e-01 4.072500e-01 8.009250e+00 6.788771e-05
Si 2.715000e-01 0.000000e+00 8.145000e+00 6.788771e-05
Si 4.072500e-01 1.357500e-01 8.280750e+00 6.788771e-05
Si 0.000000e+00 2.715000e-01 8.145000e+00 6.788771e-05
Si 1.357500e-01 4.072500e-01 8.280750e+00 6.788771e-05
Si 0.000000e+00 0.000000e+00 8.416500e+00 6.788771e-05
Si 1.357500e-01 1.357500e-01 8.552250e+00 6.788771e-05
Si 2.715000e-01 2.715000e-01 8.416500e+00 6.788771e-05
Si 4.072500e-01 4.072500e-01 8.552250e+00 6.788771e-05
Si 2.715000e-01 0.000000e+00 8.688000e+00 6.788771e-05
Si 4.072500e-01 1.357500e-01 8.823750e+00 6.788771e-05
Si 0.000000e+00 2.715000e-01 8.688000e+00 6.788771e-05
Si 1.357500e-01 4.072500e-01 8.823750e+00 6.788771e-05
Si 0.000000e+00 0.000000e+00 8.959500e+00 6.788771e-05
Si 1.357500e-01 1.357500e-01 9.095250e+00 6.788771e-05
Si 2.715000e-01 2.715000e-01 8.959500e+00 6.788771e-05
Si 4.072500e-01 4.072500e-01 9.095250e+00 6.788771e-05
Si 2.715000e-01 0.000000e+00 9.231000e+00 6.788771e-05
Si 4.072500e-01 1.357500e-01 9.366750e+00 6.788771e-05
Si 0.000000e+00 2.715000e-01 9.231000e+00 6.788771e-05
Si 1.357500e-01 4.072500e-01 9.366750e+00 6.788771e-05
Si 0.000000e+00 0.000000e+00 9.502500e+00 6.788771e-05
Si 1.357500e-01 1.357500e-01 9.638250e+00 6.788771e-05
Si 2.715000e-01 2.715000e-01 9.502500e+00 6.788771e-05
Si 4.072500e-01 4.072500e-01 9.638250e+00 6.788771e-05
Si 2.715000e-01 0.000000e+00 9.774000e+00 6.788771e-05
Si 4.072500e-01 1.357500e-01 9.909750e+00 6.788771e-05
Si 0.000000e+00 2.715000e-01 9.774000e+00 6.788771e-05
Si 1.357500e-01 4.072500e-01 9.909750e+00 6.788771e-05
Si 0.000000e+00 0.000000e+00 1.004550e+01 6.788771e-05
Si 1.357500e-01 1.357500e-01 1.018125e+01 6.788771e-05
Si 2.715000e-01 2.715000e-01 1.004550e+01 6.788771e-05
Si 4.072500e-01 4.072500e-01 1.018125e+01 6.788771e-05
Si 2.715000e-01 0.000000e+00 1.031700e+01 6.788771e-05
Si 4.072500e-01 1.357500e-01 1.045275e+01 6.788771e-05
Si 0.000000e+00 2.715000e-01 1.031700e+01 6.788771e-05
Si 1.357500e-01 4.072500e-01 1.045275e+01 6.788771e-05
Si 0.000000e+00 0.000000e+00 1.058850e+01 6.788771e-05
Si 1.357500e-01 1.357500e-01 1.072425e+01 6.788771e-05
Si 2.715000e-01 2.715000e-01 1.058850e+01 6.788771e-05
Si 4.072500e-01 4.072500e-01 1.072425e+01 6.788771e-05
Si 2.715000e-01 0.000000e+00 1.086000e+01 6.788771e-05
Si 4.072500e-01 1.357500e-01 1.099575e+01 6.788771e-05
Si 0.000000e+00 2.715000e-01 1.086000e+01 6.788771e-05
Si 1.357500e-01 4.072500e-01 1.099575e+01 6.788771e-05
Si 0.000000e+00 0.000000e+00 1.113150e+01 6.788771e-05
Si 1.357500e-01 1.357500e-01 1.126725e+01 6.788771e-05
Si 2.715000e-01 2.715000e-01 1.113150e+01 6.788771e-05
Si 4.072500e-01 4.072500e-01 1.126725e+01 6.788771e-05
Si 2.715000e-01 0.000000e+00 1.140300e+01 6.788771e-05
Si 4.072500e-01 1.357500e-01 1.153875e+01 6.788771e-05
Si 0.000000e+00 2.715000e-01 1.140300e+01 6.788771e-05
Si 1.357500e-01 4.072500e-01 1.153875e+01 6.788771e-05
Si 0.000000e+00 0.000000e+00 1.167450e+01 6.788771e-05
Si 1.357500e-01 1.357500e-01 1.181025e+01 6.788771e-05
Si 2.715000e-01 2.715000e-01 1.167450e+01 6.788771e-05
Si 4.072500e-01 4.072500e-01 1.181025e+01 6.788771e-05
Si 2.715000e-01 0.000000e+00 1.194600e+01 6.788771e-05
Si 4.072500e-01 1.357500e-01 1.208175e+01 6.788771e-05
Si 0.000000e+00 2.715000e-01 1.194600e+01 6.788771e-05
Si 1.357500e-01 4.072500e-01 1.208175e+01 6.788771e-05
Si 0.000000e+00 0.000000e+00 1.221750e+01 6.788771e-05
Si 1.357500e-01 1.357500e-01 1.235325e+01 6.788771e-05
Si 2.715000e-01 2.715000e-01 1.221750e+01 6.788771e-05
Si 4.072500e-01 4.072500e-01 1.235325e+01 6.788771e-05
Si 2.715000e-01 0.000000e+00 1.248900e+01 6.788771e-05
Si 4.072500e-01 1.357500e-01 1.262475e+01 6.788771e-05
Si 0.000000e+00 2.715000e-01 1.248900e+01 6.788771e-05
Si 1.357500e-01 4.072500e-01 1.262475e+01 6.788771e-05
Si 0.000000e+00 0.000000e+00 1.276050e+01 6.788771e-05
Si 1.357500e-01 1.357500e-01 1.289625e+01 6.788771e-05
Si 2.715000e-01 2.715000e-01 1.276050e+01 6.788771e-05
Si 4.072500e-01 4.072500e-01 1.289625e+01 6.788771e-05
Si 2.715000e-01 0.000000e+00 1.303200e+01 6.788771e-05
Si 4.072500e-01 1.357500e-01 1.316775e+01 6.788771e-05
Si 0.000000e+00 2.715000e-01 1.303200e+01 6.788771e-05
Si 1.357500e-01 4.072500e-01 1.316775e+01 6.788771e-05
Si 0.000000e+00 0.000000e+00 1.330350e+01 6.788771e-05
Si 1.357500e-01 1.357500e-01 1.343925e+01 6.788771e-05
Si 2.715000e-01 2.715000e-01 1.330350e+01 6.788771e-05
Si 4.072500e-01 4.072500e-01 1.343925e+01 6.788771e-05
Si 2.715000e-01 0.000000e+00 1.357500e+01 6.788771e-05
Si 4.072500e-01 1.357500e-01 1.371075e+01 6.788771e-05
Si 0.000000e+00 2.715000e-01 1.357500e+01 6.788771e-05
Si 1.357500e-01 4.072500e-01 1.371075e+01 6.788771e-05
Si 0.000000e+00 0.000000e+00 1.384650e+01 6.788771e-05
Si 1.357500e-01 1.357500e-01 1.398225e+01 6.788771e-05
Si 2.715000e-01 2.715000e-01 1.384650e+01 6.788771e-05
Si 4.072500e-01 4.072500e-01 1.398225e+01 6.788771e-05
Si 2.715000e-01 0.000000e+00 1.411800e+01 6.788771e-05
Si 4.072500e-01 1.357500e-01 1.425375e+01 6.788771e-05
Si 0.000000e+00 2.715000e-01 1.411800e+01 6.788771e-05
Si 1.357500e-01 4.072500e-01 1.425375e+01 6.788771e-05
Si 0.000000e+00 0.000000e+00 1.438950e+01 6.788771e-05
Si 1.357500e-01 1.357500e-01 1.452525e+01 6.788771e-05
Si 2.715000e-01 2.715000e-01 1.438950e+01 6.788771e-05
Si 4.072500e-01 4.072500e-01 1.452525e+01 6.788771e-05
Si 2.715000e-01 0.000000e+00 1.466100e+01 6.788771e-05
Si 4.072500e-01 1.357500e-01 1.479675e+01 6.788771e-05
Si 0.000000e+00 2.715000e-01 1.466100e+01 6.788771e-05
Si 1.357500e-01 4.072500e-01 1.479675e+01 6.788771e-05
Si 0.000000e+00 0.000000e+00 1.493250e+01 6.788771e-05
Si 1.357500e-01 1.357500e-01 1.506825e+01 6.788771e-05
Si 2.715000e-01 2.715000e-01 1.493250e+01 6.788771e-05
Si 4.072500e-01 4.072500e-01 1.506825e+01 6.788771e-05
Si 2.715000e-01 0.000000e+00 1.520400e+01 6.788771e-05
Si 4.072500e-01 1.357500e-01 1.533975e+01 6.788771e-05
Si 0.000000e+00 2.715000e-01 1.520400e+01 6.788771e-05
Si 1.357500e-01 4.072500e-01 1.533975e+01 6.788771e-05
Si 0.000000e+00 0.000000e+00 1.547550e+01 6.788771e-05
Si 1.357500e-01 1.357500e-01 1.561125e+01 6.788771e-05
Si 2.715000e-01 2.715000e-01 1.547550e+01 6.788771e-05
Si 4.072500e-01 4.072500e-01 1.561125e+01 6.788771e-05
Si 2.715000e-01 0.000000e+00 1.574700e+01 6.788771e-05
Si 4.072500e-01 1.357500e-01 1.588275e+01 6.788771e-05
Si 0.000000e+00 2.715000e-01 1.574700e+01 6.788771e-05
Si 1.357500e-01 4.072500e-01 1.588275e+01 6.788771e-05
Si 0.000000e+00 0.000000e+00 1.601850e+01 6.788771e-05
Si 1.357500e-01 1.357500e-01 1.615425e+01 6.788771e-05
Si 2.715000e-01 2.715000e-01 1.601850e+01 6.788771e-05
Si 4.072500e-01 4.072500e-01 1.615425e+01 6.788771e-05
Si 2.715000e-01 0.000000e+00 1.629000e+01 6.788771e-05
Si 4.072500e-01 1.357500e-01 1.642575e+01 6.788771e-05
Si 0.000000e+00 2.715000e-01 1.629000e+01 6.788771e-05
Si 1.357500e-01 4.072500e-01 1.642575e+01 6.788771e-05
Si 0.000000e+00 0.000000e+00 1.656150e+01 6.788771e-05
Si 1.357500e-01 1.357500e-01 1.669725e+01 6.788771e-05
Si 2.715000e-01 2.715000e-01 1.656150e+01 6.788771e-05
Si 4.072500e-01 4.072500e-01 1.669725e+01 6.788771e-05
Si 2.715000e-01 0.000000e+00 1.683300e+01 6.788771e-05
Si 4.072500e-01 1.357500e-01 1.696875e+01 6.788771e-05
Si 0.000000e+00 2.715000e-01 1.683300e+01 6.788771e-05
Si 1.357500e-01 4.072500e-01 1.696875e+01 6.788771e-05
Si 0.000000e+00 0.000000e+00 1.710450e+01 6.788771e-05
Si 1.357500e-01 1.357500e-01 1.724025e+01 6.788771e-05
Si 2.715000e-01 2.715000e-01 1.710450e+01 6.788771e-05
Si 4.072500e-01 4.072500e-01 1.724025e+01 6.788771e-05
Si 2.715000e-01 0.000000e+00 1.737600e+01 6.788771e-05
Si 4.072500e-01 1.357500e-01 1.751175e+01 6.788771e-05
Si 0.000000e+00 2.715000e-01 1.737600e+01 6.788771e-05
Si 1.357500e-01 4.072500e-01 1.751175e+01 6.788771e-05
Si 0.000000e+00 0.000000e+00 1.764750e+01 6.788771e-05
Si 1.357500e-01 1.357500e-01 1.778325e+01 6.788771e-05
Si 2.715000e-01 2.715000e-01 1.764750e+01 6.788771e-05
Si 4.072500e-01 4.072500e-01 1.778325e+01 6.788771e-05
Si 2.715000e-01 0.000000e+00 1.791900e+01 6.788771e-05
Si 4.072500e-01 1.357500e-01 1.805475e+01 6.788771e-05
Si 0.000000e+00 2.715000e-01 1.791900e+01 6.788771e-05
Si 1.357500e-01 4.072500e-01 1.805475e+01 6.788771e-05
Si 0.000000e+00 0.000000e+00 1.819050e+01 6.788771e-05
Si 1.357500e-01 1.357500e-01 1.832625e+01 6.788771e-05
Si 2.715000e-01 2.715000e-01 1.819050e+01 6.788771e-05
Si 4.072500e-01 4.072500e-01 1.832625e+01 6.788771e-05
Si 2.715000e-01 0.000000e+00 1.846200e+01 6.788771e-05
Si 4.072500e-01 1.357500e-01 1.859775e+01 6.788771e-05
Si 0.000000e+00 2.715000e-01 1.846200e+01 6.788771e-05
Si 1.357500e-01 4.072500e-01 1.859775e+01 6.788771e-05
Si 0.000000e+00 0.000000e+00 1.873350e+01 6.788771e-05
Si 1.357500e-01 1.357500e-01 1.886925e+01 6.788771e-05
Si 2.715000e-01 2.715000e-01 1.873350e+01 6.788771e-05
Si 4.072500e-01 4.072500e-01 1.886925e+01 6.788771e-05
Si 2.715000e-01 0.000000e+00 1.900500e+01 6.788771e-05
Si 4.072500e-01 1.357500e-01 1.914075e+01 6.788771e-05
Si 0.000000e+00 2.715000e-01 1.900500e+01 6.788771e-05
Si 1.357500e-01 4.072500e-01 1.914075e+01 6.788771e-05
Si 0.000000e+00 0.000000e+00 1.927650e+01 6.788771e-05
Si 1.357500e-01 1.357500e-01 1.941225e+01 6.788771e-05
Si 2.715000e-01 2.715000e-01 1.927650e+01 6.788771e-05
Si 4.072500e-01 4.072500e-01 1.941225e+01 6.788771e-05
Si 2.715000e-01 0.000000e+00 1.954800e+01 6.788771e-05
Si 4.072500e-01 1.357500e-01 1.968375e+01 6.788771e-05
Si 0.000000e+00 2.715000e-01 1.954800e+01 6.788771e-05
Si 1.357500e-01 4.072500e-01 1.968375e+01 6.788771e-05
Si 0.000000e+00 0.000000e+00 1.981950e+01 6.788771e-05
Si 1.357500e-01 1.357500e-01 1.995525e+01 6.788771e-05
Si 2.715000e-01 2.715000e-01 1.981950e+01 6.788771e-05
Si 4.072500e-01 4.072500e-01 1.995525e+01 6.788771e-05
Si 2.715000e-01 5.430000e-01 0.000000e+00 6.788771e-05
Si 4.072500e-01 6.787500e-01 1.357500e-01 6.788771e-05
Si 0.000000e+00 8.145000e-01 0.000000e+00 6.788771e-05
Si 1.357500e-01 9.502500e-01 1.357500e-01 6.788771e-05
Si 0.000000e+00 5.430000e-01 2.715000e-01 6.788771e-05
Si 1.357500e-01 6.787500e-01 4.072500e-01 6.788771e-05
Si 2.715000e-01 8.145000e-01 2.715000e-01 6.788771e-05
Si 4.072500e-01 9.502500e-01 4.072500e-01 6.788771e-05
Si 2.715000e-01 5.430000e-01 5.430000e-01 6.788771e-05
Si 4.072500e-01 6.787500e-01 6.787500e-01 6.788771e-05
Si 0.000000e+00 8.145000e-01 5.430000e-01 6.788771e-05
Si 1.357500e-01 9.502500e-01 6.787500e-01 6.788771e-05
Si 0.000000e+00 5.430000e-01 8.145000e-01 6.788771e-05
Si 1.357500e-01 6.787500e-01 9.502500e-01 6.788771e-05
Si 2.715000e-01 8.145000e-01 8.145000e-01 6.788771e-05
Si 4.072500e-01 9.502500e-01 9.502500e-01 6.788771e-05
Si 2.715000e-01 5.430000e-01 1.086000e+00 6.788771e-05
Si 4.072500e-01 6.787500e-01 1.221750e+00 6.788771e-05
Si 0.000000e+00 8.145000e-01 1.086000e+00 6.788771e-05
Si 1.357500e-01 9.502500e-01 1.221750e+00 6.788771e-05
Si 0.000000e+00 5.430000e-01 1.357500e+00 6.788771e-05
Si 1.357500e-01 6.787500e-01 1.493250e+00 6.788771e-05
Si 2.715000e-01 8.145000e-01 1.357500e+00 6.788771e-05
Si 4.072500e-01 9.502500e-01 1.493250e+00 6.788771e-05
Si 2.715000e-01 5.430000e-01 1.629000e+00 6.788771e-05
Si 4.072500e-01 6.787500e-01 1.764750e+00 6.788771e-05
Si 0.000000e+00 8.145000e-01 1.629000e+00 6.788771e-05
Si 1.357500e-01 9.502500e-01 1.764750e+00 6.788771e-05
Si 0.000000e+00 5.430000e-01 1.900500e+00 6.788771e-05
Si 1.357500e-01 6.787500e-01 2.036250e+00 6.788771e-05
Si 2.715000e-01 8.145000e-01 1.900500e+00 6.788771e-05
Si 4.072500e-01 9.502500e-01 2.036250e+00 6.788771e-05
Si 2.715000e-01 5.430000e-01 2.172000e+00 6.788771e-05
Si 4.072500e-01 6.787500e-01 2.307750e+00 6.788771e-05
Si 0.000000e+00 8.145000e-01 2.172000e+00 6.788771e-05
Si 1.357500e-01 9.502500e-01 2.307750e+00 6.788771e-05
Si 0.000000e+00 5.430000e-01 2.443500e+00 6.788771e-05
Si 1.357500e-01 6.787500e-01 2.579250e+00 6.788771e-05
Si 2.715000e-01 8.145000e-01 2.443500e+00 6.788771e-05
Si 4.072500e-01 9.502500e-01 2.579250e+00 6.788771e-05
Si 2.715000e-01 5.430000e-01 2.715000e+00 6.788771e-05
Si 4.072500e-01 6.787500e-01 2.850750e+00 6.788771e-05
Si 0.000000e+00 8.145000e-01 2.715000e+00 6.788771e-05
Si 1.357500e-01 9.502500e-01 2.850750e+00 6.788771e-05
Si 0.000000e+00 5.430000e-01 2.986500e+00 6.788771e-05
Si 1.357500e-01 6.787500e-01 3.122250e+00 6.788771e-05
Si 2.715000e-01 8.145000e-01 2.986500e+00 6.788771e-05
Si 4.072500e-01 9.502500e-01 3.122250e+00 6.788771e-05
Si 2.715000e-01 5.430000e-01 3.258000e+00 6.788771e-05
Si 4.072500e-01 6.787500e-01 3.393750e+00 6.788771e-05
Si 0.000000e+00 8.145000e-01 3.258000e+00 6.788771e-05
Si 1.357500e-01 9.502500e-01 3.393750e+00 6.788771e-05
Si 0.000000e+00 5.430000e-01 3.529500e+00 6.788771e-05
Si 1.357500e-01 6.787500e-01 3.665250e+00 6.788771e-05
Si 2.715000e-01 8.145000e-01 3.529500e+00 6.788771e-05
Si 4.072500e-01 9.502500e-01 3.665250e+00 6.788771e-05
Si 2.715000e-01 5.430000e-01 3.801000e+00 6.788771e-05
Si 4.072500e-01 6.787500e-01 3.936750e+00 6.788771e-05
Si 0.000000e+00 8.145000e-01 3.801000e+00 6.788771e-05
Si 1.357500e-01 9.502500e-01 3.936750e+00 6.788771e-05
Si 0.000000e+00 5.430000e-01 4.072500e+00 6.788771e-05
Si 1.357500e-01 6.787500e-01 4.208250e+00 6.788771e-05
Si 2.715000e-01 8.145000e-01 4.072500e+00 6.788771e-05
Si 4.072500e-01 9.502500e-01 4.208250e+00 6.788771e-05
Si 2.715000e-01 5.430000e-01 4.344000e+00 6.788771e-05
Si 4.072500e-01 6.787500e-01 4.479750e+00 6.788771e-05
Si 0.000000e+00 8.145000e-01 4.344000e+00 6.788771e-05
Si 1.357500e-01 9.502500e-01 4.479750e+00 6.788771e-05
Si 0.000000e+00 5.430000e-01 4.615500e+00 6.788771e-05
Si 1.357500e-01 6.787500e-01 4.751250e+00 6.788771e-05
Si 2.715000e-01 8.145000e-01 4.615500e+00 6.788771e-05
Si 4.072500e-01 9.502500e-01 4.751250e+00 6.788771e-05
Si 2.715000e-01 5.430000e-01 4.887000e+00 6.788771e-05
Si 4.072500e-01 6.787500e-01 5.022750e+00 6.788771e-05
Si 0.000000e+00 8.145000e-01 4.887000e+00 6.788771e-05
Si 1.357500e-01 9.502500e-01 5.022750e+00 6.788771e-05
Si 0.000000e+00 5.430000e-01 5.158500e+00 6.788771e-05
Si 1.357500e-01 6.787500e-01 5.294250e+00 6.788771e-05
Si 2.715000e-01 8.145000e-01 5.158500e+00 6.788771e-05
Si 4.072500e-01 9.502500e-01 5.294250e+00 6.788771e-05
Si 2.715000e-01 5.430000e-01 5.430000e+00 6.788771e-05
Si 4.072500e-01 6.787500e-01 5.565750e+00 6.788771e-05
Si 0.000000e+00 8.145000e-01 5.430000e+00 6.788771e-05
Si 1.357500e-01 9.502500e-01 5.565750e+00 6.788771e-05
Si 0.000000e+00 5.430000e-01 5.701500e+00 6.788771e-05
Si 1.357500e-01 6.787500e-01 5.837250e+00 6.788771e-05
Si 2.715000e-01 8.145000e-01 5.701500e+00 6.788771e-05
Si 4.072500e-01 9.502500e-01 5.837250e+00 6.788771e-05
Si 2.715000e-01 5.430000e-01 5.973000e+00 6.788771e-05
Si 4.072500e-01 6.787500e-01 6.108750e+00 6.788771e-05
Si 0.000000e+00 8.145000e-01 5.973000e+00 6.788771e-05
Si 1.357500e-01 9.502500e-01 6.108750e+00 6.788771e-05
Si 0.000000e+00 5.430000e-01 6.244500e+00 6.788771e-05
Si 1.357500e-01 6.787500e-01 6.380250e+00 6.788771e-05
Si 2.715000e-01 8.145000e-01 6.244500e+00 6.788771e-05
Si 4.072500e-01 9.502500e-01 6.380250e+00 6.788771e-05
Si 2.715000e-01 5.430000e-01 6.516000e+00 6.788771e-05
Si 4.072500e-01 6.787500e-01 6.651750e+00 6.788771e-05
Si 0.000000e+00 8.145000e-01 6.516000e+00 6.788771e-05
Si 1.357500e-01 9.502500e-01 6.651750e+00 6.788771e-05
Si 0.000000e+00 5.430000e-01 6.787500e+00 6.788771e-05
Si 1.357500e-01 6.787500e-01 6.923250e+00 6.788771e-05
Si 2.715000e-01 8.145000e-01 6.787500e+00 6.788771e-05
Si 4.072500e-01 9.502500e-01 6.923250e+00 6.788771e-05
Si 2.715000e-01 5.430000e-01 7.059000e+00 6.788771e-05
Si 4.072500e-01 6.787500e-01 7.194750e+00 6.788771e-05
Si 0.000000e+00 8.145000e-01 7.059000e+00 6.788771e-05
Si 1.357500e-01 9.502500e-01 7.194750e+00 6.788771e-05
Si 0.000000e+00 5.430000e-01 7.330500e+00 6.788771e-05
Si 1.357500e-01 6.787500e-01 7.466250e+00 6.788771e-05
Si 2.715000e-01 8.145000e-01 7.330500e+00 6.788771e-05
Si 4.072500e-01 9.502500e-01 7.466250e+00 6.788771e-05
Si 2.715000e-01 5.430000e-01 7.602000e+00 6.788771e-05
Si 4.072500e-01 6.787500e-01 7.737750e+00 6.788771e-05
Si 0.000000e+00 8.145000e-01 7.602000e+00 6.788771e-05
Si 1.357500e-01 9.502500e-01 7.737750e+00 6.788771e-05
Si 0.000000e+00 5.430000e-01 7.873500e+00 6.788771e-05
Si 1.357500e-01 6.787500e-01 8.009250e+00 6.788771e-05
Si 2.715000e-01 8.145000e-01 7.873500e+00 6.788771e-05
Si 4.072500e-01 9.502500e-01 8.009250e+00 6.788771e-05
Si 2.715000e-01 5.430000e-01 8.145000e+00 6.788771e-05
Si 4.072500e-01 6.787500e-01 8.280750e+00 6.788771e-05
Si 0.000000e+00 8.145000e-01 8.145000e+00 6.788771e-05
Si 1.357500e-01 9.502500e-01 8.280750e+00 6.788771e-05
Si 0.000000e+00 5.430000e-01 8.416500e+00 6.788771e-05
Si 1.357500e-01 6.787500e-01 8.552250e+00 6.788771e-05
Si 2.715000e-01 8.145000e-01 8.416500e+00 6.788771e-05
Si 4.072500e-01 9.502500e-01 8.552250e+00 6.788771e-05
Si 2.715000e-01 5.430000e-01 8.688000e+00 6.788771e-05
Si 4.072500e-01 6.787500e-01 8.823750e+00 6.788771e-05
Si 0.000000e+00 8.145000e-01 8.688000e+00 6.788771e-05
Si 1.357500e-01 9.502500e-01 8.823750e+00 6.788771e-05
Si 0.000000e+00 5.430000e-01 8.959500e+00 6.788771e-05
Si 1.357500e-01 6.787500e-01 9.095250e+00 6.788771e-05
Si 2.715000e-01 8.145000e-01 8.959500e+00 6.788771e-05
Si 4.072500e-01 9.502500e-01 9.095250e+00 6.788771e-05
Si 2.715000e-01 5.430000e-01 9.231000e+00 6.788771e-05
Si 4.072500e-01 6.787500e-01 9.366750e+00 6.788771e-05
Si 0.000000e+00 8.145000e-01 9.231000e+00 6.788771e-05
Si 1.357500e-01 9.502500e-01 9.366750e+00 6.788771e-05
Si 0.000000e+00 5.430000e-01 9.502500e+00 6.788771e-05
Si 1.357500e-01 6.787500e-01 9.638250e+00 6.788771e-05
Si 2.715000e-01 8.145000e-01 9.502500e+00 6.788771e-05
Si 4.072500e-01 9.502500e-01 9.638250e+00 6.788771e-05
Si 2.715000e-01 5.430000e-01 9.774000e+00 6.788771e-05
Si 4.072500e-01 6.787500e-01 9.909750e+00 6.788771e-05
Si 0.000000e+00 8.145000e-01 9.774000e+00 6.788771e-05
Si 1.357500e-01 9.502500e-01 9.909750e+00 6.788771e-05
Si 0.000000e+00 5.430000e-01 1.004550e+01 6.788771e-05
Si 1.357500e-01 6.787500e-01 1.018125e+01 6.788771e-05
Si 2.715000e-01 8.145000e-01 1.004550e+01 6.788771e-05
Si 4.072500e-01 9.502500e-01 1.018125e+01 6.788771e-05
Si 2.715000e-01 5.430000e-01 1.031700e+01 6.788771e-05
Si 4.072500e-01 6.787500e-01 1.045275e+01 6.788771e-05
Si 0.000000e+00 8.145000e-01 1.031700e+01 6.788771e-05
Si 1.357500e-01 9.502500e-01 1.045275e+01 6.788771e-05
Si 0.000000e+00 5.430000e-01 1.058850e+01 6.788771e-05
Si 1.357500e-01 6.787500e-01 1.072425e+01 6.788771e-05
Si 2.715000e-01 8.145000e-01 1.058850e+01 6.788771e-05
Si 4.072500e-01 9.502500e-01 1.072425e+01 6.788771e-05
Si 2.715000e-01 5.430000e-01 1.086000e+01 6.788771e-05
Si 4.072500e-01 6.787500e-01 1.099575e+01 6.788771e-05
Si 0.000000e+00 8.145000e-01 1.086000e+01 6.788771e-05
Si 1.357500e-01 9.502500e-01 1.099575e+01 6.788771e-05
Si 0.000000e+00 5.430000e-01 1.113150e+01 6.788771e-05
Si 1.357500e-01 6.787500e-01 1.126725e+01 6.788771e-05
Si 2.715000e-01 8.145000e-01 1.113150e+01 6.788771e-05
Si 4.072500e-01 9.502500e-01 1.126725e+01 6.788771e-05
Si 2.715000e-01 5.430000e-01 1.140300e+01 6.788771e-05
Si 4.072500e-01 6.787500e-01 1.153875e+01 6.788771e-05
Si 0.000000e+00 8.145000e-01 1.140300e+01 6.788771e-05
Si 1.357500e-01 9.502500e-01 1.153875e+01 6.788771e-05
Si 0.000000e+00 5.430000e-01 1.167450e+01 6.788771e-05
Si 1.357500e-01 6.787500e-01 1.181025e+01 6.788771e-05
Si 2.715000e-01 8.145000e-01 1.167450e+01 6.788771e-05
Si 4.072500e-01 9.502500e-01 1.181025e+01 6.788771e-05
Si 2.715000e-01 5.430000e-01 1.194600e+01 6.788771e-05
Si 4.072500e-01 6.787500e-01 1.208175e+01 6.788771e-05
Si 0.000000e+00 8.145000e-01 1.194600e+01 6.788771e-05
Si 1.357500e-01 9.502500e-01 1.208175e+01 6.788771e-05
Si 0.000000e+00 5.430000e-01 1.221750e+01 6.788771e-05
Si 1.357500e-01 6.787500e-01 1.235325e+01 6.788771e-05
Si 2.715000e-01 8.145000e-01 1.221750e+01 6.788771e-05
Si 4.072500e-01 9.502500e-01 1.235325e+01 6.788771e-05
Si 2.715000e-01 5.430000e-01 1.248900e+01 6.788771e-05
Si 4.072500e-01 6.787500e-01 1.262475e+01 6.788771e-05
Si 0.000000e+00 8.145000e-01 1.248900e+01 6.788771e-05
Si 1.357500e-01 9.502500e-01 1.262475e+01 6.788771e-05
Si 0.000000e+00 5.430000e-01 1.276050e+01 6.788771e-05
Si 1.357500e-01 6.787500e-01 1.289625e+01 6.788771e-05
Si 2.715000e-01 8.145000e-01 1.276050e+01 6.788771e-05
Si 4.072500e-01 9.502500e-01 1.289625e+01 6.788771e-05
Si 2.715000e-01 5.430000e-01 1.303200e+01 6.788771e-05
Si 4.072500e-01 6.787500e-01 1.316775e+01 6.788771e-05
Si 0.000000e+00 8.145000e-01 1.303200e+01 6.788771e-05
Si 1.357500e-01 9.502500e-01 1.316775e+01 6.788771e-05
Si 0.000000e+00 5.430000e-01 1.330350e+01 6.788771e-05
Si 1.357500e-01 6.787500e-01 1.343925e+01 6.788771e-05
Si 2.715000e-01 8.145000e-01 1.330350e+01 6.788771e-05
Si 4.072500e-01 9.502500e-01 1.343925e+01 6.788771e-05
Si 2.715000e-01 5.430000e-01 1.357500e+01 6.788771e-05
Si 4.072500e-01 6.787500e-01 1.371075e+01 6.788771e-05
Si 0.000000e+00 8.145000e-01 1.357500e+01 6.788771e-05
Si 1.357500e-01 9.502500e-01 1.371075e+01 6.788771e-05
Si 0.000000e+00 5.430000e-01 1.384650e+01 6.788771e-05
Si 1.357500e-01 6.787500e-01 1.398225e+01 6.788771e-05
Si 2.715000e-01 8.145000e-01 1.384650e+01 6.788771e-05
Si 4.072500e-01 9.502500e-01 1.398225e+01 6.788771e-05
Si 2.715000e-01 5.430000e-01 1.411800e+01 6.788771e-05
Si 4.072500e-01 6.787500e-01 1.425375e+01 6.788771e-05
Si 0.000000e+00 8.145000e-01 1.411800e+01 6.788771e-05
Si 1.357500e-01 9.502500e-01 1.425375e+01 6.788771e-05
Si 0.000000e+00 5.430000e-01 1.438950e+01 6.788771e-05
Si 1.357500e-01 6.787500e-01 1.452525e+01 6.788771e-05
Si 2.715000e-01 8.145000e-01 1.438950e+01 6.788771e-05
Si 4.072500e-01 9.502500e-01 1.452525e+01 6.788771e-05
Si 2.715000e-01 5.430000e-01 1.466100e+01 6.788771e-05
Si 4.072500e-01 6.787500e-01 1.479675e+01 6.788771e-05
Si 0.000000e+00 8.145000e-01 1.466100e+01 6.788771e-05
Si 1.357500e-01 9.502500e-01 1.479675e+01 6.788771e-05
Si 0.000000e+00 5.430000e-01 1.493250e+01 6.788771e-05
Si 1.357500e-01 6.787500e-01 1.506825e+01 6.788771e-05
Si 2.715000e-01 8.145000e-01 1.493250e+01 6.788771e-05
Si 4.072500e-01 9.502500e-01 1.506825e+01 6.788771e-05
Si 2.715000e-01 5.430000e-01 1.520400e+01 6.788771e-05
Si 4.072500e-01 6.787500e-01 1.533975e+01 6.788771e-05
Si 0.000000e+00 8.145000e-01 1.520400e+01 6.788771e-05
Si 1.357500e-01 9.502500e-01 1.533975e+01 6.788771e-05
Si 0.000000e+00 5.430000e-01 1.547550e+01 6.788771e-05
Si 1.357500e-01 6.787500e-01 1.561125e+01 6.788771e-05
Si 2.715000e-01 8.145000e-01 1.547550e+01 6.788771e-05
Si 4.072500e-01 9.502500e-01 1.561125e+01 6.788771e-05
Si 2.715000e-01 5.430000e-01 1.574700e+01 6.788771e-05
Si 4.072500e-01 6.787500e-01 1.588275e+01 6.788771e-05
Si 0.000000e+00 8.145000e-01 1.574700e+01 6.788771e-05
Si 1.357500e-01 9.502500e-01 1.588275e+01 6.788771e-05
Si 0.000000e+00 5.430000e-01 1.601850e+01 6.788771e-05
Si 1.357500e-01 6.787500e-01 1.615425e+01 6.788771e-05
Si 2.715000e-01 8.145000e-01 1.601850e+01 6.788771e-05
Si 4.072500e-01 9.502500e-01 1.615425e+01 6.788771e-05
Si 2.715000e-01 5.430000e-01 1.629000e+01 6.788771e-05
Si 4.072500e-01 6.787500e-01 1.642575e+01 6.788771e-05
Si 0.000000e+00 8.145000e-01 1.629000e+01 6.788771e-05
Si 1.357500e-01 9.502500e-01 1.642575e+01 6.788771e-05
Si 0.000000e+00 5.430000e-01 1.656150e+01 6.788771e-05
Si 1.357500e-01 6.787500e-01 1.669725e+01 6.788771e-05
Si 2.715000e-01 8.145000e-01 1.656150e+01 6.788771e-05
Si 4.072500e-01 9.502500e-01 1.669725e+01 6.788771e-05
Si 2.715000e-01 5.430000e-01 1.683300e+01 6.788771e-05
Si 4.072500e-01 6.787500e-01 1.696875e+01 6.788771e-05
Si 0.000000e+00 8.145000e-01 1.683300e+01 6.788771e-05
Si 1.357500e-01 9.502500e-01 1.696875e+01 6.788771e-05
Si 0.000000e+00 5.430000e-01 1.710450e+01 6.788771e-05
Si 1.357500e-01 6.787500e-01 1.724025e+01 6.788771e-05
Si 2.715000e-01 8.145000e-01 1.710450e+01 6.788771e-05
Si 4.072500e-01 9.502500e-01 1.724025e+01 6.788771e-05
Si 2.715000e-01 5.430000e-01 1.737600e+01 6.788771e-05
Si 4.072500e-01 6.787500e-01 1.751175e+01 6.788771e-05
Si 0.000000e+00 8.145000e-01 1.737600e+01 6.788771e-05
Si 1.357500e-01 9.502500e-01 1.751175e+01 6.788771e-05
Si 0.000000e+00 5.430000e-01 1.764750e+01 6.788771e-05
Si 1.357500e-01 6.787500e-01 1.778325e+01 6.788771e-05
Si 2.715000e-01 8.145000e-01 1.764750e+01 6.788771e-05
Si 4.072500e-01 9.502500e-01 1.778325e+01 6.788771e-05
Si 2.715000e-01 5.430000e-01 1.791900e+01 6.788771e-05
Si 4.072500e-01 6.787500e-01 1.805475e+01 6.788771e-05
Si 0.000000e+00 8.145000e-01 1.791900e+01 6.788771e-05
Si 1.357500e-01 9.502500e-01 1.805475e+01 6.788771e-05
Si 0.000000e+00 5.430000e-01 1.819050e+01 6.788771e-05
Si 1.357500e-01 6.787500e-01 1.832625e+01 6.788771e-05
Si 2.715000e-01 8.145000e-01 1.819050e+01 6.788771e-05
Si 4.072500e-01 9.502500e-01 1.832625e+01 6.788771e-05
Si 2.715000e-01 5.430000e-01 1.846200e+01 6.788771e-05
Si 4.072500e-01 6.787500e-01 1.859775e+01 6.788771e-05
Si 0.000000e+00 8.145000e-01 1.846200e+01 6.788771e-05
Si 1.357500e-01 9.502500e-01 1.859775e+01 6.788771e-05
Si 0.000000e+00 5.430000e-01 1.873350e+01 6.788771e-05
Si 1.357500e-01 6.787500e-01 1.886925e+01 6.788771e-05
Si 2.715000e-01 8.145000e-01 1.873350e+01 6.788771e-05
Si 4.072500e-01 9.502500e-01 1.886925e+01 6.788771e-05
Si 2.715000e-01 5.430000e-01 1.900500e+01 6.788771e-05
Si 4.072500e-01 6.787500e-01 1.914075e+01 6.788771e-05
Si 0.000000e+00 8.145000e-01 1.900500e+01 6.788771e-05
Si 1.357500e-01 9.502500e-01 1.914075e+01 6.788771e-05
Si 0.000000e+00 5.430000e-01 1.927650e+01 6.788771e-05
Si 1.357500e-01 6.787500e-01 1.941225e+01 6.788771e-05
Si 2.715000e-01 8.145000e-01 1.927650e+01 6.788771e-05
Si 4.072500e-01 9.502500e-01 1.941225e+01 6.788771e-05
Si 2.715000e-01 5.430000e-01 1.954800e+01 6.788771e-05
Si 4.072500e-01 6.787500e-01 1.968375e+01 6.788771e-05
Si 0.000000e+00 8.145000e-01 1.954800e+01 6.788771e-05
Si 1.357500e-01 9.502500e-01 1.968375e+01 6.788771e-05
Si 0.000000e+00 5.430000e-01 1.981950e+01 6.788771e-05
Si 1.357500e-01 6.787500e-01 1.995525e+01 6.788771e-05
Si 2.715000e-01 8.145000e-01 1.981950e+01 6.788771e-05
Si 4.072500e-01 9.502500e-01 1.995525e+01 6.788771e-05
Si 8.145000e-01 0.000000e+00 0.000000e+00 6.788771e-05
Si 9.502500e-01 1.357500e-01 1.357500e-01 6.788771e-05
Si 5.430000e-01 2.715000e-01 0.000000e+00 6.788771e-05
Si 6.787500e-01 4.072500e-01 1.357500e-01 6.788771e-05
Si 5.430000e-01 0.000000e+00 2.715000e-01 6.788771e-05
Si 6.787500e-01 1.357500e-01 4.072500e-01 6.788771e-05
Si 8.145000e-01 2.715000e-01 2.715000e-01 6.788771e-05
Si 9.502500e-01 4.072500e-01 4.072500e-01 6.788771e-05
Si 8.145000e-01 0.000000e+00 5.430000e-01 6.788771e-05
Si 9.502500e-01 1.357500e-01 6.787500e-01 6.788771e-05
Si 5.430000e-01 2.715000e-01 5.430000e-01 6.788771e-05
Si 6.787500e-01 4.072500e-01 6.787500e-01 6.788771e-05
Si 5.430000e-01 0.000000e+00 8.145000e-01 6.788771e-05
Si 6.787500e-01 1.357500e-01 9.502500e-01 6.788771e-05
Si 8.145000e-01 2.715000e-01 8.145000e-01 6.788771e-05
Si 9.502500e-01 4.072500e-01 9.502500e-01 6.788771e-05
Si 8.145000e-01 0.000000e+00 1.086000e+00 6.788771e-05
Si 9.502500e-01 1.357500e-01 1.221750e+00 6.788771e-05
Si 5.430000e-01 2.715000e-01 1.086000e+00 6.788771e-05
Si 6.787500e-01 4.072500e-01 1.221750e+00 6.788771e-05
Si 5.430000e-01 0.000000e+00 1.357500e+00 6.788771e-05
Si 6.787500e-01 1.357500e-01 1.493250e+00 6.788771e-05
Si 8.145000e-01 2.715000e-01 1.357500e+00 6.788771e-05
Si 9.502500e-01 4.072500e-01 1.493250e+00 6.788771e-05
Si 8.145000e-01 0.000000e+00 1.629000e+00 6.788771e-05
Si 9.502500e-01 1.357500e-01 1.764750e+00 6.788771e-05
Si 5.430000e-01 2.715000e-01 1.629000e+00 6.788771e-05
Si 6.787500e-01 4.072500e-01 1.764750e+00 6.788771e-05
Si 5.430000e-01 0.000000e+00 1.900500e+00 6.788771e-05
Si 6.787500e-01 1.357500e-01 2.036250e+00 6.788771e-05
Si 8.145000e-01 2.715000e-01 1.900500e+00 6.788771e-05
Si 9.502500e-01 4.072500e-01 2.036250e+00 6.788771e-05
Si 8.145000e-01 0.000000e+00 2.172000e+00 6.788771e-05
Si 9.502500e-01 1.357500e-01 2.307750e+00 6.788771e-05
Si 5.430000e-01 2.715000e-01 2.172000e+00 6.788771e-05
Si 6.787500e-01 4.072500e-01 2.307750e+00 6.788771e-05
Si 5.430000e-01 0.000000e+00 2.443500e+00 6.788771e-05
Si 6.787500e-01 1.357500e-01 2.579250e+00 6.788771e-05
Si 8.145000e-01 2.715000e-01 2.443500e+00 6.788771e-05
Si 9.502500e-01 4.072500e-01 2.579250e+00 6.788771e-05
Si 8.145000e-01 0.000000e+00 2.715000e+00 6.788771e-05
Si 9.502500e-01 1.357500e-01 2.850750e+00 6.788771e-05
Si 5.430000e-01 2.715000e-01 2.715000e+00 6.788771e-05
Si 6.787500e-01 4.072500e-01 2.850750e+00 6.788771e-05
Si 5.430000e-01 0.000000e+00 2.986500e+00 6.788771e-05
Si 6.787500e-01 1.357500e-01 3.122250e+00 6.788771e-05
Si 8.145000e-01 2.715000e-01 2.986500e+00 6.788771e-05
Si 9.502500e-01 4.072500e-01 3.122250e+00 6.788771e-05
Si 8.145000e-01 0.000000e+00 3.258000e+00 6.788771e-05
Si 9.502500e-01 1.357500e-01 3.393750e+00 6.788771e-05
Si 5.430000e-01 2.715000e-01 3.258000e+00 6.788771e-05
Si 6.787500e-01 4.072500e-01 3.393750e+00 6.788771e-05
Si 5.430000e-01 0.000000e+00 3.529500e+00 6.788771e-05
Si 6.787500e-01 1.357500e-01 3.665250e+00 6.788771e-05
Si 8.145000e-01 2.715000e-01 3.529500e+00 6.788771e-05
Si 9.502500e-01 4.072500e-01 3.665250e+00 6.788771e-05
Si 8.145000e-01 0.000000e+00 3.801000e+00 6.788771e-05
Si 9.502500e-01 1.357500e-01 3.936750e+00 6.788771e-05
Si 5.430000e-01 2.715000e-01 3.801000e+00 6.788771e-05
Si 6.787500e-01 4.072500e-01 3.936750e+00 6.788771e-05
Si 5.430000e-01 0.000000e+00 4.072500e+00 6.788771e-05
Si 6.787500e-01 1.357500e-01 4.208250e+00 6.788771e-05
Si 8.145000e-01 2.715000e-01 4.072500e+00 6.788771e-05
Si 9.502500e-01 4.072500e-01 4.208250e+00 6.788771e-05
Si 8.145000e-01 0.000000e+00 4.344000e+00 6.788771e-05
Si 9.502500e-01 1.357500e-01 4.479750e+00 6.788771e-05
Si 5.430000e-01 2.715000e-01 4.344000e+00 6.788771e-05
Si 6.787500e-01 4.072500e-01 4.479750e+00 6.788771e-05
Si 5.430000e-01 0.000000e+00 4.615500e+00 6.788771e-05
Si 6.787500e-01 1.357500e-01 4.751250e+00 6.788771e-05
Si 8.145000e-01 2.715000e-01 4.615500e+00 6.788771e-05
Si 9.502500e-01 4.072500e-01 4.751250e+00 6.788771e-05
Si 8.145000e-01 0.000000e+00 4.887000e+00 6.788771e-05
Si 9.502500e-01 1.357500e-01 5.022750e+00 6.788771e-05
Si 5.430000e-01 2.715000e-01 4.887000e+00 6.788771e-05
Si 6.787500e-01 4.072500e-01 5.022750e+00 6.788771e-05
Si 5.430000e-01 0.000000e+00 5.158500e+00 6.788771e-05
Si 6.787500e-01 1.357500e-01 5.294250e+00 6.788771e-05
Si 8.145000e-01 2.715000e-01 5.158500e+00 6.788771e-05
Si 9.502500e-01 4.072500e-01 5.294250e+00 6.788771e-05
Si 8.145000e-01 0.000000e+00 5.430000e+00 6.788771e-05
Si 9.502500e-01 1.357500e-01 5.565750e+00 6.788771e-05
Si 5.430000e-01 2.715000e-01 5.430000e+00 6.788771e-05
Si 6.787500e-01 4.072500e-01 5.565750e+00 6.788771e-05
Si 5.430000e-01 0.000000e+00 5.701500e+00 6.788771e-05
Si 6.787500e-01 1.357500e-01 5.837250e+00 6.788771e-05
Si 8.145000e-01 2.715000e-01 5.701500e+00 6.788771e-05
Si 9.502500e-01 4.072500e-01 5.837250e+00 6.788771e-05
Si 8.145000e-01 0.000000e+00 5.973000e+00 6.788771e-05
Si 9.502500e-01 1.357500e-01 6.108750e+00 6.788771e-05
Si 5.430000e-01 2.715000e-01 5.973000e+00 6.788771e-05
Si 6.787500e-01 4.072500e-01 6.108750e+00 6.788771e-05
Si 5.430000e-01 0.000000e+00 6.244500e+00 6.788771e-05
Si 6.787500e-01 1.357500e-01 6.380250e+00 6.788771e-05
Si 8.145000e-01 2.715000e-01 6.244500e+00 6.788771e-05
Si 9.502500e-01 4.072500e-01 6.380250e+00 6.788771e-05
Si 8.145000e-01 0.000000e+00 6.516000e+00 6.788771e-05
Si 9.502500e-01 1.357500e-01 6.651750e+00 6.788771e-05
Si 5.430000e-01 2.715000e-01 6.516000e+00 6.788771e-05
Si 6.787500e-01 4.072500e-01 6.651750e+00 6.788771e-05
Si 5.430000e-01 0.000000e+00 6.787500e+00 6.788771e-05
Si 6.787500e-01 1.357500e-01 6.923250e+00 6.788771e-05
Si 8.145000e-01 2.715000e-01 6.787500e+00 6.788771e-05
Si 9.502500e-01 4.072500e-01 6.923250e+00 6.788771e-05
Si 8.145000e-01 0.000000e+00 7.059000e+00 6.788771e-05
Si 9.502500e-01 1.357500e-01 7.194750e+00 6.788771e-05
Si 5.430000e-01 2.715000e-01 7.059000e+00 6.788771e-05
Si 6.787500e-01 4.072500e-01 7.194750e+00 6.788771e-05
Si 5.430000e-01 0.000000e+00 7.330500e+00 6.788771e-05
Si 6.787500e-01 1.357500e-01 7.466250e+00 6.788771e-05
Si 8.145000e-01 2.715000e-01 7.330500e+00 6.788771e-05
Si 9.502500e-01 4.072500e-01 7.466250e+00 6.788771e-05
Si 8.145000e-01 0.000000e+00 7.602000e+00 6.788771e-05
Si 9.502500e-01 1.357500e-01 7.737750e+00 6.788771e-05
Si 5.430000e-01 2.715000e-01 7.602000e+00 6.788771e-05
Si 6.787500e-01 4.072500e-01 7.737750e+00 6.788771e-05
Si 5.430000e-01 0.000000e+00 7.873500e+00 6.788771e-05
Si 6.787500e-01 1.357500e-01 8.009250e+00 6.788771e-05
Si 8.145000e-01 2.715000e-01 7.873500e+00 6.788771e-05
Si 9.502500e-01 4.072500e-01 8.009250e+00 6.788771e-05
Si 8.145000e-01 0.000000e+00 8.145000e+00 6.788771e-05
Si 9.502500e-01 1.357500e-01 8.280750e+00 6.788771e-05
Si 5.430000e-01 2.715000e-01 8.145000e+00 6.788771e-05
Si 6.787500e-01 4.072500e-01 8.280750e+00 6.788771e-05
Si 5.430000e-01 0.000000e+00 8.416500e+00 6.788771e-05
Si 6.787500e-01 1.357500e-01 8.552250e+00 6.788771e-05
Si 8.145000e-01 2.715000e-01 8.416500e+00 6.788771e-05
Si 9.502500e-01 4.072500e-01 8.552250e+00 6.788771e-05
Si 8.145000e-01 0.000000e+00 8.688000e+00 6.788771e-05
Si 9.502500e-01 1.357500e-01 8.823750e+00 6.788771e-05
Si 5.430000e-01 2.715000e-01 8.688000e+00 6.788771e-05
Si 6.787500e-01 4.072500e-01 8.823750e+00 6.788771e-05
Si 5.430000e-01 0.000000e+00 8.959500e+00 6.788771e-05
Si 6.787500e-01 1.357500e-01 9.095250e+00 6.788771e-05
Si 8.145000e-01 2.715000e-01 8.959500e+00 6.788771e-05
Si 9.502500e-01 4.072500e-01 9.095250e+00 6.788771e-05
Si 8.145000e-01 0.000000e+00 9.231000e+00 6.788771e-05
Si 9.502500e-01 1.357500e-01 9.366750e+00 6.788771e-05
Si 5.430000e-01 2.715000e-01 9.231000e+00 6.788771e-05
Si 6.787500e-01 4.072500e-01 9.366750e+00 6.788771e-05
Si 5.430000e-01 0.000000e+00 9.502500e+00 6.788771e-05
Si 6.787500e-01 1.357500e-01 9.638250e+00 6.788771e-05
Si 8.145000e-01 2.715000e-01 9.502500e+00 6.788771e-05
Si 9.502500e-01 4.072500e-01 9.638250e+00 6.788771e-05
Si 8.145000e-01 0.000000e+00 9.774000e+00 6.788771e-05
Si 9.502500e-01 1.357500e-01 9.909750e+00 6.788771e-05
Si 5.430000e-01 2.715000e-01 9.774000e+00 6.788771e-05
Si 6.787500e-01 4.072500e-01 9.909750e+00 6.788771e-05
Si 5.430000e-01 0.000000e+00 1.004550e+01 6.788771e-05
Si 6.787500e-01 1.357500e-01 1.018125e+01 6.788771e-05
Si 8.145000e-01 2.715000e-01 1.004550e+01 6.788771e-05
Si 9.502500e-01 4.072500e-01 1.018125e+01 6.788771e-05
Si 8.145000e-01 0.000000e+00 1.031700e+01 6.788771e-05
Si 9.502500e-01 1.357500e-01 1.045275e+01 6.788771e-05
Si 5.430000e-01 2.715000e-01 1.031700e+01 6.788771e-05
Si 6.787500e-01 4.072500e-01 1.045275e+01 6.788771e-05
Si 5.430000e-01 0.000000e+00 1.058850e+01 6.788771e-05
Si 6.787500e-01 1.357500e-01 1.072425e+01 6.788771e-05
Si 8.145000e-01 2.715000e-01 1.058850e+01 6.788771e-05
Si 9.502500e-01 4.072500e-01 1.072425e+01 6.788771e-05
Si 8.145000e-01 0.000000e+00 1.086000e+01 6.788771e-05
Si 9.502500e-01 1.357500e-01 1.099575e+01 6.788771e-05
Si 5.430000e-01 2.715000e-01 1.086000e+01 6.788771e-05
Si 6.787500e-01 4.072500e-01 1.099575e+01 6.788771e-05
Si 5.430000e-01 0.000000e+00 1.113150e+01 6.788771e-05
Si 6.787500e-01 1.357500e-01 1.126725e+01 6.788771e-05
Si 8.145000e-01 2.715000e-01 1.113150e+01 6.788771e-05
Si 9.502500e-01 4.072500e-01 1.126725e+01 6.788771e-05
Si 8.145000e-01 0.000000e+00 1.140300e+01 6.788771e-05
Si 9.502500e-01 1.357500e-01 1.153875e+01 6.788771e-05
Si 5.430000e-01 2.715000e-01 1.140300e+01 6.788771e-05
Si 6.787500e-01 4.072500e-01 1.153875e+01 6.788771e-05
Si 5.430000e-01 0.000000e+00 1.167450e+01 6.788771e-05
Si 6.787500e-01 1.357500e-01 1.181025e+01 6.788771e-05
Si 8.145000e-01 2.715000e-01 1.167450e+01 6.788771e-05
Si 9.502500e-01 4.072500e-01 1.181025e+01 6.788771e-05
Si 8.145000e-01 0.000000e+00 1.194600e+01 6.788771e-05
Si 9.502500e-01 1.357500e-01 1.208175e+01 6.788771e-05
Si 5.430000e-01 2.715000e-01 1.194600e+01 6.788771e-05
Si 6.787500e-01 4.072500e-01 1.208175e+01 6.788771e-05
Si 5.430000e-01 0.000000e+00 1.221750e+01 6.788771e-05
Si 6.787500e-01 1.357500e-01 1.235325e+01 6.788771e-05
Si 8.145000e-01 2.715000e-01 1.221750e+01 6.788771e-05
Si 9.502500e-01 4.072500e-01 1.235325e+01 6.788771e-05
Si 8.145000e-01 0.000000e+00 1.248900e+01 6.788771e-05
Si 9.502500e-01 1.357500e-01 1.262475e+01 6.788771e-05
Si 5.430000e-01 2.715000e-01 1.248900e+01 6.788771e-05
Si 6.787500e-01 4.072500e-01 1.262475e+01 6.788771e-05
Si 5.430000e-01 0.000000e+00 1.276050e+01 6.788771e-05
Si 6.787500e-01 1.357500e-01 1.289625e+01 6.788771e-05
Si 8.145000e-01 2.715000e-01 1.276050e+01 6.788771e-05
Si 9.502500e-01 4.072500e-01 1.289625e+01 6.788771e-05
Si 8.145000e-01 0.000000e+00 1.303200e+01 6.788771e-05
Si 9.502500e-01 1.357500e-01 1.316775e+01 6.788771e-05
Si 5.430000e-01 2.715000e-01 1.303200e+01 6.788771e-05
Si 6.787500e-01 4.072500e-01 1.316775e+01 6.788771e-05
Si 5.430000e-01 0.000000e+00 1.330350e+01 6.788771e-05
Si 6.787500e-01 1.357500e-01 1.343925e+01 6.788771e-05
Si 8.145000e-01 2.715000e-01 1.330350e+01 6.788771e-05
Si 9.502500e-01 4.072500e-01 1.343925e+01 6.788771e-05
Si 8.145000e-01 0.000000e+00 1.357500e+01 6.788771e-05
Si 9.502500e-01 1.357500e-01 1.371075e+01 6.788771e-05
Si 5.430000e-01 2.715000e-01 1.357500e+01 6.788771e-05
Si 6.787500e-01 4.072500e-01 1.371075e+01 6.788771e-05
Si 5.430000e-01 0.000000e+00 1.384650e+01 6.788771e-05
Si 6.787500e-01 1.357500e-01 1.398225e+01 6.788771e-05
Si 8.145000e-01 2.715000e-01 1.384650e+01 6.788771e-05
Si 9.502500e-01 4.072500e-01 1.398225e+01 6.788771e-05
Si 8.145000e-01 0.000000e+00 1.411800e+01 6.788771e-05
Si 9.502500e-01 1.357500e-01 1.425375e+01 6.788771e-05
Si 5.430000e-01 2.715000e-01 1.411800e+01 6.788771e-05
Si 6.787500e-01 4.072500e-01 1.425375e+01 6.788771e-05
Si 5.430000e-01 0.000000e+00 1.438950e+01 6.788771e-05
Si 6.787500e-01 1.357500e-01 1.452525e+01 6.788771e-05
Si 8.145000e-01 2.715000e-01 1.438950e+01 6.788771e-05
Si 9.502500e-01 4.072500e-01 1.452525e+01 6.788771e-05
Si 8.145000e-01 0.000000e+00 1.466100e+01 6.788771e-05
Si 9.502500e-01 1.357500e-01 1.479675e+01 6.788771e-05
Si 5.430000e-01 2.715000e-01 1.466100e+01 6.788771e-05
Si 6.787500e-01 4.072500e-01 1.479675e+01 6.788771e-05
Si 5.430000e-01 0.000000e+00 1.493250e+01 6.788771e-05
Si 6.787500e-01 1.357500e-01 1.506825e+01 6.788771e-05
Si 8.145000e-01 2.715000e-01 1.493250e+01 6.788771e-05
Si 9.502500e-01 4.072500e-01 1.506825e+01 6.788771e-05
Si 8.145000e-01 0.000000e+00 1.520400e+01 6.788771e-05
Si 9.502500e-01 1.357500e-01 1.533975e+01 6.788771e-05
Si 5.430000e-01 2.715000e-01 1.520400e+01 6.788771e-05
Si 6.787500e-01 4.072500e-01 1.533975e+01 6.788771e-05
Si 5.430000e-01 0.000000e+00 1.547550e+01 6.788771e-05
Si 6.787500e-01 1.357500e-01 1.561125e+01 6.788771e-05
Si 8.145000e-01 2.715000e-01 1.547550e+01 6.788771e-05
Si 9.502500e-01 4.072500e-01 1.561125e+01 6.788771e-05
Si 8.145000e-01 0.000000e+00 1.574700e+01 6.788771e-05
Si 9.502500e-01 1.357500e-01 1.588275e+01 6.788771e-05
Si 5.430000e-01 2.715000e-01 1.574700e+01 6.788771e-05
Si 6.787500e-01 4.072500e-01 1.588275e+01 6.788771e-05
Si 5.430000e-01 0.000000e+00 1.601850e+01 6.788771e-05
Si 6.787500e-01 1.357500e-01 1.615425e+01 6.788771e-05
Si 8.145000e-01 2.715000e-01 1.601850e+01 6.788771e-05
Si 9.502500e-01 4.072500e-01 1.615425e+01 6.788771e-05
Si 8.145000e-01 0.000000e+00 1.629000e+01 6.788771e-05
Si 9.502500e-01 1.357500e-01 1.642575e+01 6.788771e-05
Si 5.430000e-01 2.715000e-01 1.629000e+01 6.788771e-05
Si 6.787500e-01 4.072500e-01 1.642575e+01 6.788771e-05
Si 5.430000e-01 0.000000e+00 1.656150e+01 6.788771e-05
Si 6.787500e-01 1.357500e-01 1.669725e+01 6.788771e-05
Si 8.145000e-01 2.715000e-01 1.656150e+01 6.788771e-05
Si 9.502500e-01 4.072500e-01 1.669725e+01 6.788771e-05
Si 8.145000e-01 0.000000e+00 1.683300e+01 6.788771e-05
Si 9.502500e-01 1.357500e-01 1.696875e+01 6.788771e-05
Si 5.430000e-01 2.715000e-01 1.683300e+01 6.788771e-05
Si 6.787500e-01 4.072500e-01 1.696875e+01 6.788771e-05
Si 5.430000e-01 0.000000e+00 1.710450e+01 6.788771e-05
Si 6.787500e-01 1.357500e-01 1.724025e+01 6.788771e-05
Si 8.145000e-01 2.715000e-01 1.710450e+01 6.788771e-05
Si 9.502500e-01 4.072500e-01 1.724025e+01 6.788771e-05
Si 8.145000e-01 0.000000e+00 1.737600e+01 6.788771e-05
Si 9.502500e-01 1.357500e-01 1.751175e+01 6.788771e-05
Si 5.430000e-01 2.715000e-01 1.737600e+01 6.788771e-05
Si 6.787500e-01 4.072500e-01 1.751175e+01 6.788771e-05
Si 5.430000e-01 0.000000e+00 1.764750e+01 6.788771e-05
Si 6.787500e-01 1.357500e-01 1.778325e+01 6.788771e-05
Si 8.145000e-01 2.715000e-01 1.764750e+01 6.788771e-05
Si 9.502500e-01 4.072500e-01 1.778325e+01 6.788771e-05
Si 8.145000e-01 0.000000e+00 1.791900e+01 6.788771e-05
Si 9.502500e-01 1.357500e-01 1.805475e+01 6.788771e-05
Si 5.430000e-01 2.715000e-01 1.791900e+01 6.788771e-05
Si 6.787500e-01 4.072500e-01 1.805475e+01 6.788771e-05
Si 5.430000e-01 0.000000e+00 1.819050e+01 6.788771e-05
Si 6.787500e-01 1.357500e-01 1.832625e+01 6.788771e-05
Si 8.145000e-01 2.715000e-01 1.819050e+01 6.788771e-05
Si 9.502500e-01 4.072500e-01 1.832625e+01 6.788771e-05
Si 8.145000e-01 0.000000e+00 1.846200e+01 6.788771e-05
Si 9.502500e-01 1.357500e-01 1.859775e+01 6.788771e-05
Si 5.430000e-01 2.715000e-01 1.846200e+01 6.788771e-05
Si 6.787500e-01 4.072500e-01 1.859775e+01 6.788771e-05
Si 5.430000e-01 0.000000e+00 1.873350e+01 6.788771e-05
Si 6.787500e-01 1.357500e-01 1.886925e+01 6.788771e-05
Si 8.145000e-01 2.715000e-01 1.873350e+01 6.788771e-05
Si 9.502500e-01 4.072500e-01 1.886925e+01 6.788771e-05
Si 8.145000e-01 0.000000e+00 1.900500e+01 6.788771e-05
Si 9.502500e-01 1.357500e-01 1.914075e+01 6.788771e-05
Si 5.430000e-01 2.715000e-01 1.900500e+01 6.788771e-05
Si 6.787500e-01 4.072500e-01 1.914075e+01 6.788771e-05
Si 5.430000e-01 0.000000e+00 1.927650e+01 6.788771e-05
Si 6.787500e-01 1.357500e-01 1.941225e+01 6.788771e-05
Si 8.145000e-01 2.715000e-01 1.927650e+01 6.788771e-05
Si 9.502500e-01 4.072500e-01 1.941225e+01 6.788771e-05
Si 8.145000e-01 0.000000e+00 1.954800e+01 6.788771e-05
Si 9.502500e-01 1.357500e-01 1.968375e+01 6.788771e-05
Si 5.430000e-01 2.715000e-01 1.954800e+01 6.788771e-05
Si 6.787500e-01 4.072500e-01 1.968375e+01 6.788771e-05
Si 5.430000e-01 0.000000e+00 1.981950e+01 6.788771e-05
Si 6.787500e-01 1.357500e-01 1.995525e+01 6.788771e-05
Si 8.145000e-01 2.715000e-01 1.981950e+01 6.788771e-05
Si 9.502500e-01 4.072500e-01 1.995525e+01 6.788771e-05
Si 8.145000e-01 5.430000e-01 0.000000e+00 6.788771e-05
Si 9.502500e-01 6.787500e-01 1.357500e-01 6.788771e-05
Si 5.430000e-01 8.145000e-01 0.000000e+00 6.788771e-05
Si 6.787500e-01 9.502500e-01 1.357500e-01 6.788771e-05
Si 5.430000e-01 5.430000e-01 2.715000e-01 6.788771e-05
Si 6.787500e-01 6.787500e-01 4.072500e-01 6.788771e-05
Si 8.145000e-01 8.145000e-01 2.715000e-01 6.788771e-05
Si 9.502500e-01 9.502500e-01 4.072500e-01 6.788771e-05
Si 8.145000e-01 5.430000e-01 5.430000e-01 6.788771e-05
Si 9.502500e-01 6.787500e-01 6.787500e-01 6.788771e-05
Si 5.430000e-01 8.145000e-01 5.430000e-01 6.788771e-05
Si 6.787500e-01 9.502500e-01 6.787500e-01 6.788771e-05
Si 5.430000e-01 5.430000e-01 8.145000e-01 6.788771e-05
Si 6.787500e-01 6.787500e-01 9.502500e-01 6.788771e-05
Si 8.145000e-01 8.145000e-01 8.145000e-01 6.788771e-05
Si 9.502500e-01 9.502500e-01 9.502500e-01 6.788771e-05
Si 8.145000e-01 5.430000e-01 1.086000e+00 6.788771e-05
Si 9.502500e-01 6.787500e-01 1.221750e+00 6.788771e-05
Si 5.430000e-01 8.145000e-01 1.086000e+00 6.788771e-05
Si 6.787500e-01 9.502500e-01 1.221750e+00 6.788771e-05
Si 5.430000e-01 5.430000e-01 1.357500e+00 6.788771e-05
Si 6.787500e-01 6.787500e-01 1.493250e+00 6.788771e-05
Si 8.145000e-01 8.145000e-01 1.357500e+00 6.788771e-05
Si 9.502500e-01 9.502500e-01 1.493250e+00 6.788771e-05
Si 8.145000e-01 5.430000e-01 1.629000e+00 6.788771e-05
Si 9.502500e-01 6.787500e-01 1.764750e+00 6.788771e-05
Si 5.430000e-01 8.145000e-01 1.629000e+00 6.788771e-05
Si 6.787500e-01 9.502500e-01 1.764750e+00 6.788771e-05
Si 5.430000e-01 5.430000e-01 1.900500e+00 6.788771e-05
Si 6.787500e-01 6.787500e-01 2.036250e+00 6.788771e-05
Si 8.145000e-01 8.145000e-01 1.900500e+00 6.788771e-05
Si 9.502500e-01 9.502500e-01 2.036250e+00 6.788771e-05
Si 8.145000e-01 5.430000e-01 2.172000e+00 6.788771e-05
Si 9.502500e-01 6.787500e-01 2.307750e+00 6.788771e-05
Si 5.430000e-01 8.145000e-01 2.172000e+00 6.788771e-05
Si 6.787500e-01 9.502500e-01 2.307750e+00 6.788771e-05
Si 5.430000e-01 5.430000e-01 2.443500e+00 6.788771e-05
Si 6.787500e-01 6.787500e-01 2.579250e+00 6.788771e-05
Si 8.145000e-01 8.145000e-01 2.443500e+00 6.788771e-05
Si 9.502500e-01 9.502500e-01 2.579250e+00 6.788771e-05
Si 8.145000e-01 5.430000e-01 2.715000e+00 6.788771e-05
Si 9.502500e-01 6.787500e-01 2.850750e+00 6.788771e-05
Si 5.430000e-01 8.145000e-01 2.715000e+00 6.788771e-05
Si 6.787500e-01 9.502500e-01 2.850750e+00 6.788771e-05
Si 5.430000e-01 5.430000e-01 2.986500e+00 6.788771e-05
Si 6.787500e-01 6.787500e-01 3.122250e+00 6.788771e-05
Si 8.145000e-01 8.145000e-01 2.986500e+00 6.788771e-05
Si 9.502500e-01 9.502500e-01 3.122250e+00 6.788771e-05
Si 8.145000e-01 5.430000e-01 3.258000e+00 6.788771e-05
Si 9.502500e-01 6.787500e-01 3.393750e+00 6.788771e-05
Si 5.430000e-01 8.145000e-01 3.258000e+00 6.788771e-05
Si 6.787500e-01 9.502500e-01 3.393750e+00 6.788771e-05
Si 5.430000e-01 5.430000e-01 3.529500e+00 6.788771e-05
Si 6.787500e-01 6.787500e-01 3.665250e+00 6.788771e-05
Si 8.145000e-01 8.145000e-01 3.529500e+00 6.788771e-05
Si 9.502500e-01 9.502500e-01 3.665250e+00 6.788771e-05
Si 8.145000e-01 5.430000e-01 3.801000e+00 6.788771e-05
Si 9.502500e-01 6.787500e-01 3.936750e+00 6.788771e-05
Si 5.430000e-01 8.145000e-01 3.801000e+00 6.788771e-05
Si 6.787500e-01 9.502500e-01 3.936750e+00 6.788771e-05
Si 5.430000e-01 5.430000e-01 4.072500e+00 6.788771e-05
Si 6.787500e-01 6.787500e-01 4.208250e+00 6.788771e-05
Si 8.145000e-01 8.145000e-01 4.072500e+00 6.788771e-05
Si 9.502500e-01 9.502500e-01 4.208250e+00 6.788771e-05
Si 8.145000e-01 5.430000e-01 4.344000e+00 6.788771e-05
Si 9.502500e-01 6.787500e-01 4.479750e+00 6.788771e-05
Si 5.430000e-01 8.145000e-01 4.344000e+00 6.788771e-05
Si 6.787500e-01 9.502500e-01 4.479750e+00 6.788771e-05
Si 5.430000e-01 5.430000e-01 4.615500e+00 6.788771e-05
Si 6.787500e-01 6.787500e-01 4.751250e+00 6.788771e-05
Si 8.145000e-01 8.145000e-01 4.615500e+00 6.788771e-05
Si 9.502500e-01 9.502500e-01 4.751250e+00 6.788771e-05
Si 8.145000e-01 5.430000e-01 4.887000e+00 6.788771e-05
Si 9.502500e-01 6.787500e-01 5.022750e+00 6.788771e-05
Si 5.430000e-01 8.145000e-01 4.887000e+00 6.788771e-05
Si 6.787500e-01 9.502500e-01 5.022750e+00 6.788771e-05
Si 5.430000e-01 5.430000e-01 5.158500e+00 6.788771e-05
Si 6.787500e-01 6.787500e-01 5.294250e+00 6.788771e-05
Si 8.145000e-01 8.145000e-01 5.158500e+00 6.788771e-05
Si 9.502500e-01 9.502500e-01 5.294250e+00 6.788771e-05
Si 8.145000e-01 5.430000e-01 5.430000e+00 6.788771e-05
Si 9.502500e-01 6.787500e-01 5.565750e+00 6.788771e-05
Si 5.430000e-01 8.145000e-01 5.430000e+00 6.788771e-05
Si 6.787500e-01 9.502500e-01 5.565750e+00 6.788771e-05
Si 5.430000e-01 5.430000e-01 5.701500e+00 6.788771e-05
Si 6.787500e-01 6.787500e-01 5.837250e+00 6.788771e-05
Si 8.145000e-01 8.145000e-01 5.701500e+00 6.788771e-05
Si 9.502500e-01 9.502500e-01 5.837250e+00 6.788771e-05
Si 8.145000e-01 5.430000e-01 5.973000e+00 6.788771e-05
Si 9.502500e-01 6.787500e-01 6.108750e+00 6.788771e-05
Si 5.430000e-01 8.145000e-01 5.973000e+00 6.788771e-05
Si 6.787500e-01 9.502500e-01 6.108750e+00 6.788771e-05
Si 5.430000e-01 5.430000e-01 6.244500e+00 6.788771e-05
Si 6.787500e-01 6.787500e-01 6.380250e+00 6.788771e-05
Si 8.145000e-01 8.145000e-01 6.244500e+00 6.788771e-05
Si 9.502500e-01 9.502500e-01 6.380250e+00 6.788771e-05
Si 8.145000e-01 5.430000e-01 6.516000e+00 6.788771e-05
Si 9.502500e-01 6.787500e-01 6.651750e+00 6.788771e-05
Si 5.430000e-01 8.145000e-01 6.516000e+00 6.788771e-05
Si 6.787500e-01 9.502500e-01 6.651750e+00 6.788771e-05
Si 5.430000e-01 5.430000e-01 6.787500e+00 6.788771e-05
Si 6.787500e-01 6.787500e-01 6.923250e+00 6.788771e-05
Si 8.145000e-01 8.145000e-01 6.787500e+00 6.788771e-05
Si 9.502500e-01 9.502500e-01 6.923250e+00 6.788771e-05
Si 8.145000e-01 5.430000e-01 7.059000e+00 6.788771e-05
Si 9.502500e-01 6.787500e-01 7.194750e+00 6.788771e-05
Si 5.430000e-01 8.145000e-01 7.059000e+00 6.788771e-05
Si 6.787500e-01 9.502500e-01 7.194750e+00 6.788771e-05
Si 5.430000e-01 5.430000e-01 7.330500e+00 6.788771e-05
Si 6.787500e-01 6.787500e-01 7.466250e+00 6.788771e-05
Si 8.145000e-01 8.145000e-01 7.330500e+00 6.788771e-05
Si 9.502500e-01 9.502500e-01 7.466250e+00 6.788771e-05
Si 8.145000e-01 5.430000e-01 7.602000e+00 6.788771e-05
Si 9.502500e-01 6.787500e-01 7.737750e+00 6.788771e-05
Si 5.430000e-01 8.145000e-01 7.602000e+00 6.788771e-05
Si 6.787500e-01 9.502500e-01 7.737750e+00 6.788771e-05
Si 5.430000e-01 5.430000e-01 7.873500e+00 6.788771e-05
Si 6.787500e-01 6.787500e-01 8.009250e+00 6.788771e-05
Si 8.145000e-01 8.145000e-01 7.873500e+00 6.788771e-05
Si 9.502500e-01 9.502500e-01 8.009250e+00 6.788771e-05
Si 8.145000e-01 5.430000e-01 8.145000e+00 6.788771e-05
Si 9.502500e-01 6.787500e-01 8.280750e+00 6.788771e-05
Si 5.430000e-01 8.145000e-01 8.145000e+00 6.788771e-05
Si 6.787500e-01 9.502500e-01 8.280750e+00 6.788771e-05
Si 5.430000e-01 5.430000e-01 8.416500e+00 6.788771e-05
Si 6.787500e-01 6.787500e-01 8.552250e+00 6.788771e-05
Si 8.145000e-01 8.145000e-01 8.416500e+00 6.788771e-05
Si 9.502500e-01 9.502500e-01 8.552250e+00 6.788771e-05
Si 8.145000e-01 5.430000e-01 8.688000e+00 6.788771e-05
Si 9.502500e-01 6.787500e-01 8.823750e+00 6.788771e-05
Si 5.430000e-01 8.145000e-01 8.688000e+00 6.788771e-05
Si 6.787500e-01 9.502500e-01 8.823750e+00 6.788771e-05
Si 5.430000e-01 5.430000e-01 8.959500e+00 6.788771e-05
Si 6.787500e-01 6.787500e-01 9.095250e+00 6.788771e-05
Si 8.145000e-01 8.145000e-01 8.959500e+00 6.788771e-05
Si 9.502500e-01 9.502500e-01 9.095250e+00 6.788771e-05
Si 8.145000e-01 5.430000e-01 9.231000e+00 6.788771e-05
Si 9.502500e-01 6.787500e-01 9.366750e+00 6.788771e-05
Si 5.430000e-01 8.145000e-01 9.231000e+00 6.788771e-05
Si 6.787500e-01 9.502500e-01 9.366750e+00 6.788771e-05
Si 5.430000e-01 5.430000e-01 9.502500e+00 6.788771e-05
Si 6.787500e-01 6.787500e-01 9.638250e+00 6.788771e-05
Si 8.145000e-01 8.145000e-01 9.502500e+00 6.788771e-05
Si 9.502500e-01 9.502500e-01 9.638250e+00 6.788771e-05
Si 8.145000e-01 5.430000e-01 9.774000e+00 6.788771e-05
Si 9.502500e-01 6.787500e-01 9.909750e+00 6.788771e-05
Si 5.430000e-01 8.145000e-01 9.774000e+00 6.788771e-05
Si 6.787500e-01 9.502500e-01 9.909750e+00 6.788771e-05
Si 5.430000e-01 5.430000e-01 1.004550e+01 6.788771e-05
Si 6.787500e-01 6.787500e-01 1.018125e+01 6.788771e-05
Si 8.145000e-01 8.145000e-01 1.004550e+01 6.788771e-05
Si 9.502500e-01 9.502500e-01 1.018125e+01 6.788771e-05
Si 8.145000e-01 5.430000e-01 1.031700e+01 6.788771e-05
Si 9.502500e-01 6.787500e-01 1.045275e+01 6.788771e-05
Si 5.430000e-01 8.145000e-01 1.031700e+01 6.788771e-05
Si 6.787500e-01 9.502500e-01 1.045275e+01 6.788771e-05
Si 5.430000e-01 5.430000e-01 1.058850e+01 6.788771e-05
Si 6.787500e-01 6.787500e-01 1.072425e+01 6.788771e-05
Si 8.145000e-01 8.145000e-01 1.058850e+01 6.788771e-05
Si 9.502500e-01 9.502500e-01 1.072425e+01 6.788771e-05
Si 8.145000e-01 5.430000e-01 1.086000e+01 6.788771e-05
Si 9.502500e-01 6.787500e-01 1.099575e+01 6.788771e-05
Si 5.430000e-01 8.145000e-01 1.086000e+01 6.788771e-05
Si 6.787500e-01 9.502500e-01 1.099575e+01 6.788771e-05
Si 5.430000e-01 5.430000e-01 1.113150e+01 6.788771e-05
Si 6.787500e-01 6.787500e-01 1.126725e+01 6.788771e-05
Si 8.145000e-01 8.145000e-01 1.113150e+01 6.788771e-05
Si 9.502500e-01 9.502500e-01 1.126725e+01 6.788771e-05
Si 8.145000e-01 5.430000e-01 1.140300e+01 6.788771e-05
Si 9.502500e-01 6.787500e-01 1.153875e+01 6.788771e-05
Si 5.430000e-01 8.145000e-01 1.140300e+01 6.788771e-05
Si 6.787500e-01 9.502500e-01 1.153875e+01 6.788771e-05
Si 5.430000e-01 5.430000e-01 1.167450e+01 6.788771e-05
Si 6.787500e-01 6.787500e-01 1.181025e+01 6.788771e-05
Si 8.145000e-01 8.145000e-01 1.167450e+01 6.788771e-05
Si 9.502500e-01 9.502500e-01 1.181025e+01 6.788771e-05
Si 8.145000e-01 5.430000e-01 1.194600e+01 6.788771e-05
Si 9.502500e-01 6.787500e-01 1.208175e+01 6.788771e-05
Si 5.430000e-01 8.145000e-01 1.194600e+01 6.788771e-05
Si 6.787500e-01 9.502500e-01 1.208175e+01 6.788771e-05
Si 5.430000e-01 5.430000e-01 1.221750e+01 6.788771e-05
Si 6.787500e-01 6.787500e-01 1.235325e+01 6.788771e-05
Si 8.145000e-01 8.145000e-01 1.221750e+01 6.788771e-05
Si 9.502500e-01 9.502500e-01 1.235325e+01 6.788771e-05
Si 8.145000e-01 5.430000e-01 1.248900e+01 6.788771e-05
Si 9.502500e-01 6.787500e-01 1.262475e+01 6.788771e-05
Si 5.430000e-01 8.145000e-01 1.248900e+01 6.788771e-05
Si 6.787500e-01 9.502500e-01 1.262475e+01 6.788771e-05
Si 5.430000e-01 5.430000e-01 1.276050e+01 6.788771e-05
Si 6.787500e-01 6.787500e-01 1.289625e+01 6.788771e-05
Si 8.145000e-01 8.145000e-01 1.276050e+01 6.788771e-05
Si 9.502500e-01 9.502500e-01 1.289625e+01 6.788771e-05
Si 8.145000e-01 5.430000e-01 1.303200e+01 6.788771e-05
Si 9.502500e-01 6.787500e-01 1.316775e+01 6.788771e-05
Si 5.430000e-01 8.145000e-01 1.303200e+01 6.788771e-05
Si 6.787500e-01 9.502500e-01 1.316775e+01 6.788771e-05
Si 5.430000e-01 5.430000e-01 1.330350e+01 6.788771e-05
Si 6.787500e-01 6.787500e-01 1.343925e+01 6.788771e-05
Si 8.145000e-01 8.145000e-01 1.330350e+01 6.788771e-05
Si 9.502500e-01 9.502500e-01 1.343925e+01 6.788771e-05
Si 8.145000e-01 5.430000e-01 1.357500e+01 6.788771e-05
Si 9.502500e-01 6.787500e-01 1.371075e+01 6.788771e-05
Si 5.430000e-01 8.145000e-01 1.357500e+01 6.788771e-05
Si 6.787500e-01 9.502500e-01 1.371075e+01 6.788771e-05
Si 5.430000e-01 5.430000e-01 1.384650e+01 6.788771e-05
Si 6.787500e-01 6.787500e-01 1.398225e+01 6.788771e-05
Si 8.145000e-01 8.145000e-01 1.384650e+01 6.788771e-05
Si 9.502500e-01 9.502500e-01 1.398225e+01 6.788771e-05
Si 8.145000e-01 5.430000e-01 1.411800e+01 6.788771e-05
Si 9.502500e-01 6.787500e-01 1.425375e+01 6.788771e-05
Si 5.430000e-01 8.145000e-01 1.411800e+01 6.788771e-05
Si 6.787500e-01 9.502500e-01 1.425375e+01 6.788771e-05
Si 5.430000e-01 5.430000e-01 1.438950e+01 6.788771e-05
Si 6.787500e-01 6.787500e-01 1.452525e+01 6.788771e-05
Si 8.145000e-01 8.145000e-01 1.438950e+01 6.788771e-05
Si 9.502500e-01 9.502500e-01 1.452525e+01 6.788771e-05
Si 8.145000e-01 5.430000e-01 1.466100e+01 6.788771e-05
Si 9.502500e-01 6.787500e-01 1.479675e+01 6.788771e-05
Si 5.430000e-01 8.145000e-01 1.466100e+01 6.788771e-05
Si 6.787500e-01 9.502500e-01 1.479675e+01 6.788771e-05
Si 5.430000e-01 5.430000e-01 1.493250e+01 6.788771e-05
Si 6.787500e-01 6.787500e-01 1.506825e+01 6.788771e-05
Si 8.145000e-01 8.145000e-01 1.493250e+01 6.788771e-05
Si 9.502500e-01 9.502500e-01 1.506825e+01 6.788771e-05
Si 8.145000e-01 5.430000e-01 1.520400e+01 6.788771e-05
Si 9.502500e-01 6.787500e-01 1.533975e+01 6.788771e-05
Si 5.430000e-01 8.145000e-01 1.520400e+01 6.788771e-05
Si 6.787500e-01 9.502500e-01 1.533975e+01 6.788771e-05
Si 5.430000e-01 5.430000e-01 1.547550e+01 6.788771e-05
Si 6.787500e-01 6.787500e-01 1.561125e+01 6.788771e-05
Si 8.145000e-01 8.145000e-01 1.547550e+01 6.788771e-05
Si 9.502500e-01 9.502500e-01 1.561125e+01 6.788771e-05
Si 8.145000e-01 5.430000e-01 1.574700e+01 6.788771e-05
Si 9.502500e-01 6.787500e-01 1.588275e+01 6.788771e-05
Si 5.430000e-01 8.145000e-01 1.574700e+01 6.788771e-05
Si 6.787500e-01 9.502500e-01 1.588275e+01 6.788771e-05
Si 5.430000e-01 5.430000e-01 1.601850e+01 6.788771e-05
Si 6.787500e-01 6.787500e-01 1.615425e+01 6.788771e-05
Si 8.145000e-01 8.145000e-01 1.601850e+01 6.788771e-05
Si 9.502500e-01 9.502500e-01 1.615425e+01 6.788771e-05
Si 8.145000e-01 5.430000e-01 1.629000e+01 6.788771e-05
Si 9.502500e-01 6.787500e-01 1.642575e+01 6.788771e-05
Si 5.430000e-01 8.145000e-01 1.629000e+01 6.788771e-05
Si 6.787500e-01 9.502500e-01 1.642575e+01 6.788771e-05
Si 5.430000e-01 5.430000e-01 1.656150e+01 6.788771e-05
Si 6.787500e-01 6.787500e-01 1.669725e+01 6.788771e-05
Si 8.145000e-01 8.145000e-01 1.656150e+01 6.788771e-05
Si 9.502500e-01 9.502500e-01 1.669725e+01 6.788771e-05
Si 8.145000e-01 5.430000e-01 1.683300e+01 6.788771e-05
Si 9.502500e-01 6.787500e-01 1.696875e+01 6.788771e-05
Si 5.430000e-01 8.145000e-01 1.683300e+01 6.788771e-05
Si 6.787500e-01 9.502500e-01 1.696875e+01 6.788771e-05
Si 5.430000e-01 5.430000e-01 1.710450e+01 6.788771e-05
Si 6.787500e-01 6.787500e-01 1.724025e+01 6.788771e-05
Si 8.145000e-01 8.145000e-01 1.710450e+01 6.788771e-05
Si 9.502500e-01 9.502500e-01 1.724025e+01 6.788771e-05
Si 8.145000e-01 5.430000e-01 1.737600e+01 6.788771e-05
Si 9.502500e-01 6.787500e-01 1.751175e+01 6.788771e-05
Si 5.430000e-01 8.145000e-01 1.737600e+01 6.788771e-05
Si 6.787500e-01 9.502500e-01 1.751175e+01 6.788771e-05
Si 5.430000e-01 5.430000e-01 1.764750e+01 6.788771e-05
Si 6.787500e-01 6.787500e-01 1.778325e+01 6.788771e-05
Si 8.145000e-01 8.145000e-01 1.764750e+01 6.788771e-05
Si 9.502500e-01 9.502500e-01 1.778325e+01 6.788771e-05
Si 8.145000e-01 5.430000e-01 1.791900e+01 6.788771e-05
Si 9.502500e-01 6.787500e-01 1.805475e+01 6.788771e-05
Si 5.430000e-01 8.145000e-01 1.791900e+01 6.788771e-05
Si 6.787500e-01 9.502500e-01 1.805475e+01 6.788771e-05
Si 5.430000e-01 5.430000e-01 1.819050e+01 6.788771e-05
Si 6.787500e-01 6.787500e-01 1.832625e+01 6.788771e-05
Si 8.145000e-01 8.145000e-01 1.819050e+01 6.788771e-05
Si 9.502500e-01 9.502500e-01 1.832625e+01 6.788771e-05
Si 8.145000e-01 5.430000e-01 1.846200e+01 6.788771e-05
Si 9.502500e-01 6.787500e-01 1.859775e+01 6.788771e-05
Si 5.430000e-01 8.145000e-01 1.846200e+01 6.788771e-05
Si 6.787500e-01 9.502500e-01 1.859775e+01 6.788771e-05
Si 5.430000e-01 5.430000e-01 1.873350e+01 6.788771e-05
Si 6.787500e-01 6.787500e-01 1.886925e+01 6.788771e-05
Si 8.145000e-01 8.145000e-01 1.873350e+01 6.788771e-05
Si 9.502500e-01 9.502500e-01 1.886925e+01 6.788771e-05
Si 8.145000e-01 5.430000e-01 1.900500e+01 6.788771e-05
Si 9.502500e-01 6.787500e-01 1.914075e+01 6.788771e-05
Si 5.430000e-01 8.145000e-01 1.900500e+01 6.788771e-05
Si 6.787500e-01 9.502500e-01 1.914075e+01 6.788771e-05
Si 5.430000e-01 5.430000e-01 1.927650e+01 6.788771e-05
Si 6.787500e-01 6.787500e-01 1.941225e+01 6.788771e-05
Si 8.145000e-01 8.145000e-01 1.927650e+01 6.788771e-05
Si 9.502500e-01 9.502500e-01 1.941225e+01 6.788771e-05
Si 8.145000e-01 5.430000e-01 1.954800e+01 6.788771e-05
Si 9.502500e-01 6.787500e-01 1.968375e+01 6.788771e-05
Si 5.430000e-01 8.145000e-01 1.954800e+01 6.788771e-05
Si 6.787500e-01 9.502500e-01 1.968375e+01 6.788771e-05
Si 5.430000e-01 5.430000e-01 1.981950e+01 6.788771e-05
Si 6.787500e-01 6.787500e-01 1.995525e+01 6.788771e-05
Si 8.145000e-01 8.145000e-01 1.981950e+01 6.788771e-05
Si 9.502500e-01 9.502500e-01 1.995525e+01 6.788771e-05
